{
  "project_info": {
    "project_number": "621417124774",
    "firebase_url": "https://slay-app.firebaseio.com",
    "project_id": "slay-app",
    "storage_bucket": "slay-app.appspot.com"
  },
  "client": [
    {
      "client_info": {
        "mobilesdk_app_id": "1:621417124774:android:9214e85ca2fbcb4a",
        "android_client_info": {
          "package_name": "com.studiostorquato.slayapp"
        }
      },
      "oauth_client": [
        {
          "client_id": "621417124774-b24lr1tifdaksd8g4bts061krkij46qo.apps.googleusercontent.com",
          "client_type": 1,
          "android_info": {
            "package_name": "com.studiostorquato.slayapp",
            "certificate_hash": "a873849b32712243d2495cb98c1665224520f2ad"
          }
        },
        {
          "client_id": "621417124774-t8ln3s5q25997e5n9qi90b4h5ih86bvr.apps.googleusercontent.com",
          "client_type": 1,
          "android_info": {
            "package_name": "com.studiostorquato.slayapp",
            "certificate_hash": "5e812ab7e4f0944292e5c2b3e42629ac50bc49a1"
          }
        },
        {
          "client_id": "621417124774-94otlrfvait711fk9gj63n4l49phdla5.apps.googleusercontent.com",
          "client_type": 3
        }
      ],
      "api_key": [
        {
          "current_key": "AIzaSyAMvmdlTvxxkpEq2rIOjKSXveCmU6Go1iw"
        }
      ],
      "services": {
        "analytics_service": {
          "status": 1
        },
        "appinvite_service": {
          "status": 2,
          "other_platform_oauth_client": [
            {
              "client_id": "621417124774-94otlrfvait711fk9gj63n4l49phdla5.apps.googleusercontent.com",
              "client_type": 3
            }
          ]
        },
        "ads_service": {
          "status": 2
        }
      }
    }
  ],
  "configuration_version": "1"
}